{
  "name": "Product",
  "base": "PersistedModel",
  "idInjection": true,
  "options": {
    "validateUpsert": true
  },
  "properties": {
    "ProductName": {
      "type": "string",
      "required": true
    },
    "CategoryId": {
      "type": "string",
      "required": true
    }
  },
  "validations": [],
  "relations": {
    "Category": {
            "type": "belongsTo",
            "model": "Category",
            "foreignKey": "CategoryId"
        }
    },
  "acls": [],
  "methods": {}
}
